{
    "elapsed": "0.090955018997192",
    "servertime": "20181102111317.9727",
    "retval": {
        "words": [
            {
                "confidence": 1,
                "start": 5,
                "index": 0,
                "punct": "The king of the golden mountain\nVua núi vàng\n \n",
                "word": "The king of the golden mountain\nVua núi vàng\n \n"
            },
            {
                "confidence": 1,
                "start": 9.5,
                "index": 1,
                "punct": "Once there was a rich merchant\nXưa có một thương gia giàu có\n \n",
                "word": "Once there was a rich merchant\nXưa có một thương gia giàu có\n \n"
            },
            {
                "confidence": 1,
                "start": 12.13,
                "index": 2,
                "punct": "He decided to load all his wealth into his two ships to the other lands to make more wealth, but alas they drowned leaving him poor\nÔng quyết định chất hết tài sản của mình lên thuyền để đến vùng đất khác mở rộng làm ăn, nhưng không may họ bị đắm thuyền khiến ông bị khánh kiệt\n \n",
                "word": "He decided to load all his wealth into his two ships to the other lands to make more wealth, but alas they drowned leaving him poor\nÔng quyết định chất hết tài sản của mình lên thuyền để đến vùng đất khác mở rộng làm ăn, nhưng không may họ bị đắm thuyền khiến ông bị khánh kiệt\n \n"
            },
            {
                "confidence": 1,
                "start": 23.15,
                "index": 3,
                "punct": "All he was left with was his little son and his only land left\nTất cả những gì còn lại là người con trai và một mảnh đất\n \n",
                "word": "All he was left with was his little son and his only land left\nTất cả những gì còn lại là người con trai và một mảnh đất\n \n"
            },
            {
                "confidence": 1,
                "start": 29.05,
                "index": 4,
                "punct": "One evening, he went to his land to relax, when he was visited by a dwarf called Manikin\nMột buổi tối nọ, khi đang nghỉ ngơi trên mảnh đất của mình, ông bị một người lùn tên là Manikin ghé thăm\n \n",
                "word": "One evening, he went to his land to relax, when he was visited by a dwarf called Manikin\nMột buổi tối nọ, khi đang nghỉ ngơi trên mảnh đất của mình, ông bị một người lùn tên là Manikin ghé thăm\n \n"
            },
            {
                "confidence": 1,
                "start": 38.13,
                "index": 5,
                "punct": "Friend, why so sorrowful? What is it you take so deeply to heart?\nAnh bạn, sao trông anh buồn như thế? Cái gì đang đè nặng lên trái tim của anh vậy?\n \n",
                "word": "Friend, why so sorrowful? What is it you take so deeply to heart?\nAnh bạn, sao trông anh buồn như thế? Cái gì đang đè nặng lên trái tim của anh vậy?\n \n"
            },
            {
                "confidence": 1,
                "start": 45,
                "index": 6,
                "punct": "I lost all my wealth. I worry for my son\nTôi đã mất hết gia tài rồi. Tôi đang lo lắng cho con trai mình\n \n",
                "word": "I lost all my wealth. I worry for my son\nTôi đã mất hết gia tài rồi. Tôi đang lo lắng cho con trai mình\n \n"
            },
            {
                "confidence": 1,
                "start": 49.4,
                "index": 7,
                "punct": "Ask what you want, you shall get it, and in return, you shall give me the first thing that holds you when you reach home after 12 years to this date\nHãy cầu xin điều mà anh mong muốn đi, anh sẽ có được nó, nhưng đổi lại, anh sẽ đưa cho ta thứ đầu tiên ôm lấy anh khi anh về đến nhà 12 năm sau kể từ ngày hôm nay\n \n",
                "word": "Ask what you want, you shall get it, and in return, you shall give me the first thing that holds you when you reach home after 12 years to this date\nHãy cầu xin điều mà anh mong muốn đi, anh sẽ có được nó, nhưng đổi lại, anh sẽ đưa cho ta thứ đầu tiên ôm lấy anh khi anh về đến nhà 12 năm sau kể từ ngày hôm nay\n \n"
            },
            {
                "confidence": 1,
                "start": 61.25,
                "index": 8,
                "punct": "Agreed\nTôi đồng ý\n \n",
                "word": "Agreed\nTôi đồng ý\n \n"
            },
            {
                "confidence": 1,
                "start": 63.08,
                "index": 9,
                "punct": "As the merchant returned home happily, his son comes from behind and grabs his leg\nKhi thương gia quay về nhà trong niềm hân hoan, đứa con trai chạy lại từ phía sau và ôm lấy chân ông\n \n",
                "word": "As the merchant returned home happily, his son comes from behind and grabs his leg\nKhi thương gia quay về nhà trong niềm hân hoan, đứa con trai chạy lại từ phía sau và ôm lấy chân ông\n \n"
            },
            {
                "confidence": 1,
                "start": 70,
                "index": 10,
                "punct": "He realizes what he has done without thinking, fear grips him\nÔng nhận ra những gì ông đã làm mà không suy nghĩ, nỗi sợ ập đến\n \n",
                "word": "He realizes what he has done without thinking, fear grips him\nÔng nhận ra những gì ông đã làm mà không suy nghĩ, nỗi sợ ập đến\n \n"
            },
            {
                "confidence": 1,
                "start": 75,
                "index": 11,
                "punct": "He goes to his attic and checks his money chest and finds it empty, relieved he thinks since the money has not come, he will reject it when it comes\nÔng đi lên tầng gác mái và kiểm tra hòm tiền và thấy nó trống rỗng, ông cảm thấy nhẹ nhõm vì nghĩ rằng của cải chưa xuất hiện, ông có thể từ chối nhận nó khi nó xuất hiện\n \n",
                "word": "He goes to his attic and checks his money chest and finds it empty, relieved he thinks since the money has not come, he will reject it when it comes\nÔng đi lên tầng gác mái và kiểm tra hòm tiền và thấy nó trống rỗng, ông cảm thấy nhẹ nhõm vì nghĩ rằng của cải chưa xuất hiện, ông có thể từ chối nhận nó khi nó xuất hiện\n \n"
            }
        ],
        "segmentation": {
            "segments": [
                {
                    "bandwidth": "S",
                    "@type": "Segment",
                    "speaker": {
                        "gender": "",
                        "@id": ""
                    },
                    "start": "5"
                },
                {
                    "bandwidth": "S",
                    "@type": "Segment",
                    "speaker": {
                        "gender": "",
                        "@id": ""
                    },
                    "start": "9.50"
                },
                {
                    "bandwidth": "S",
                    "@type": "Segment",
                    "speaker": {
                        "gender": "",
                        "@id": ""
                    },
                    "start": "12.13"
                },
                {
                    "bandwidth": "S",
                    "@type": "Segment",
                    "speaker": {
                        "gender": "",
                        "@id": ""
                    },
                    "start": "23.15"
                },
                {
                    "bandwidth": "S",
                    "@type": "Segment",
                    "speaker": {
                        "gender": "",
                        "@id": ""
                    },
                    "start": "29.05"
                },
                {
                    "bandwidth": "S",
                    "@type": "Segment",
                    "speaker": {
                        "gender": "",
                        "@id": ""
                    },
                    "start": "38.13"
                },
                {
                    "bandwidth": "S",
                    "@type": "Segment",
                    "speaker": {
                        "gender": "",
                        "@id": ""
                    },
                    "start": "45"
                },
                {
                    "bandwidth": "S",
                    "@type": "Segment",
                    "speaker": {
                        "gender": "",
                        "@id": ""
                    },
                    "start": "49.40"
                },
                {
                    "bandwidth": "S",
                    "@type": "Segment",
                    "speaker": {
                        "gender": "",
                        "@id": ""
                    },
                    "start": "61.25"
                },
                {
                    "bandwidth": "S",
                    "@type": "Segment",
                    "speaker": {
                        "gender": "",
                        "@id": ""
                    },
                    "start": "63.08"
                },
                {
                    "bandwidth": "S",
                    "@type": "Segment",
                    "speaker": {
                        "gender": "",
                        "@id": ""
                    },
                    "start": "70"
                },
                {
                    "bandwidth": "S",
                    "@type": "Segment",
                    "speaker": {
                        "gender": "",
                        "@id": ""
                    },
                    "start": "75"
                }
            ]
        }
    }
}